<svg width="26" height="32" viewBox="0 0 26 32" fill="none" xmlns="http://www.w3.org/2000/svg">
<g clip-path="url(#clip0_224_734)">
<path d="M19.4702 32H12.5404C12.4045 32.0081 12.2683 31.9884 12.1402 31.9419C12.0121 31.8955 11.8949 31.8233 11.7958 31.7299C11.6966 31.6365 11.6176 31.5238 11.5636 31.3987C11.5096 31.2737 11.4818 31.1389 11.4818 31.0027C11.4818 30.8664 11.5096 30.7317 11.5636 30.6066C11.6176 30.4815 11.6966 30.3688 11.7958 30.2754C11.8949 30.182 12.0121 30.1099 12.1402 30.0634C12.2683 30.017 12.4045 29.9972 12.5404 30.0053H19.4702C19.6062 29.9972 19.7424 30.017 19.8705 30.0634C19.9985 30.1099 20.1157 30.182 20.2149 30.2754C20.314 30.3688 20.3931 30.4815 20.4471 30.6066C20.5011 30.7317 20.5289 30.8664 20.5289 31.0027C20.5289 31.1389 20.5011 31.2737 20.4471 31.3987C20.3931 31.5238 20.314 31.6365 20.2149 31.7299C20.1157 31.8233 19.9985 31.8955 19.8705 31.9419C19.7424 31.9884 19.6062 32.0081 19.4702 32ZM0.999111 27.0222C0.868074 27.0227 0.738233 26.9973 0.617036 26.9475C0.495839 26.8976 0.38567 26.8244 0.292847 26.7319C0.200025 26.6394 0.126374 26.5295 0.0761207 26.4085C0.0258671 26.2875 -8.35684e-07 26.1577 0 26.0267C0.00469185 23.6846 0.710167 21.3976 2.02563 19.4599C3.34109 17.5222 5.20635 16.0225 7.38133 15.1538C5.8556 14.2387 4.67075 12.85 4.00722 11.1993C3.34368 9.54852 3.23783 7.72614 3.70578 6.00966C4.17373 4.29319 5.18984 2.77668 6.59937 1.6911C8.00889 0.60551 9.73459 0.0103301 11.5136 -0.00380127C13.2927 -0.0179326 15.0276 0.549759 16.4542 1.61282C17.8808 2.67588 18.9209 4.17605 19.4161 5.88487C19.9112 7.5937 19.8343 9.41753 19.1971 11.0786C18.5599 12.7397 17.3972 14.147 15.8862 15.0862C17.3665 15.649 18.7172 16.5064 19.8564 17.6065C20.9956 18.7066 21.8997 20.0265 22.5138 21.4862C22.5737 21.6083 22.6081 21.7414 22.6147 21.8772C22.6214 22.0131 22.6003 22.1489 22.5527 22.2763C22.5051 22.4037 22.4319 22.52 22.3377 22.6181C22.2436 22.7163 22.1304 22.7941 22.005 22.847C21.8797 22.8998 21.7449 22.9265 21.6089 22.9255C21.4729 22.9244 21.3385 22.8955 21.2141 22.8407C21.0896 22.7859 20.9776 22.7062 20.885 22.6066C20.7924 22.507 20.7212 22.3895 20.6756 22.2613C19.8006 20.1977 18.2396 18.4998 16.2567 17.4547C14.2738 16.4096 11.9908 16.0816 9.7939 16.5262C7.59701 16.9707 5.62113 18.1606 4.20058 19.8944C2.78003 21.6282 2.00203 23.7995 1.99822 26.0409C1.99448 26.3031 1.88745 26.5532 1.70038 26.7369C1.51332 26.9207 1.26132 27.0232 0.999111 27.0222ZM11.5662 1.99467C10.348 1.99678 9.1578 2.35972 8.14571 3.03767C7.13362 3.71562 6.34505 4.6782 5.87952 5.80392C5.414 6.92964 5.29239 8.16803 5.53005 9.3628C5.76771 10.5576 6.35397 11.6552 7.21486 12.517C8.07574 13.3789 9.17265 13.9664 10.3671 14.2055C11.5616 14.4445 12.8002 14.3243 13.9264 13.8601C15.0527 13.3959 16.0162 12.6084 16.6953 11.5971C17.3744 10.5858 17.7387 9.39595 17.7422 8.17778C17.7436 7.36601 17.5849 6.56193 17.2751 5.81159C16.9653 5.06125 16.5106 4.37939 15.9369 3.80505C15.3632 3.2307 14.6819 2.77516 13.9319 2.46451C13.1819 2.15386 12.378 1.9942 11.5662 1.99467ZM24.9636 26.6347H12.5191C12.3831 26.6428 12.2469 26.623 12.1189 26.5766C11.9908 26.5301 11.8736 26.458 11.7744 26.3646C11.6753 26.2712 11.5963 26.1585 11.5423 26.0334C11.4883 25.9083 11.4604 25.7736 11.4604 25.6373C11.4604 25.5011 11.4883 25.3663 11.5423 25.2413C11.5963 25.1162 11.6753 25.0035 11.7744 24.9101C11.8736 24.8167 11.9908 24.7445 12.1189 24.6981C12.2469 24.6516 12.3831 24.6319 12.5191 24.64H24.9636C25.0995 24.6319 25.2357 24.6516 25.3638 24.6981C25.4919 24.7445 25.6091 24.8167 25.7082 24.9101C25.8074 25.0035 25.8864 25.1162 25.9404 25.2413C25.9944 25.3663 26.0222 25.5011 26.0222 25.6373C26.0222 25.7736 25.9944 25.9083 25.9404 26.0334C25.8864 26.1585 25.8074 26.2712 25.7082 26.3646C25.6091 26.458 25.4919 26.5301 25.3638 26.5766C25.2357 26.623 25.0995 26.6428 24.9636 26.6347Z" fill="white"/>
</g>
<defs>
<clipPath id="clip0_224_734">
<rect width="25.9733" height="32" fill="white"/>
</clipPath>
</defs>
</svg>
