<svg width="145" height="150" viewBox="0 0 145 150" fill="none" xmlns="http://www.w3.org/2000/svg">
<g clip-path="url(#clip0_1268_6871)">
<path d="M101.02 73.0605C105.969 80.153 108.108 88.8308 107.023 97.4111C105.937 105.991 101.704 113.863 95.1445 119.499C88.5847 125.136 80.1655 128.136 71.5196 127.917C62.8736 127.698 54.6169 124.277 48.3503 118.316C42.0838 112.355 38.254 104.28 37.6035 95.6556C36.953 87.0314 39.5282 78.4729 44.8297 71.6396C50.1312 64.8063 57.7814 60.185 66.2967 58.672C74.812 57.1589 83.5858 58.8619 90.9169 63.4505C91.4026 63.756 91.747 64.2419 91.8745 64.8013C92.0019 65.3607 91.9019 65.9478 91.5964 66.4335C91.291 66.9192 90.8051 67.2636 90.2457 67.3911C89.6863 67.5185 89.0991 67.4185 88.6135 67.113C82.2748 63.144 74.7029 61.6315 67.3258 62.8608C59.9488 64.09 53.2764 67.9761 48.5673 73.786C43.8581 79.596 41.4375 86.9283 41.7621 94.4C42.0867 101.872 45.134 108.966 50.3293 114.346C55.5246 119.726 62.5088 123.019 69.9647 123.603C77.4206 124.188 84.8328 122.025 90.8034 117.521C96.774 113.017 100.89 106.485 102.376 99.1548C103.862 91.8251 102.614 84.2051 98.8684 77.7319L70.8125 105.811C70.3998 106.203 69.8523 106.422 69.283 106.422C68.7137 106.422 68.1662 106.203 67.7535 105.811L54.7391 92.7872C54.334 92.3815 54.1067 91.8316 54.1072 91.2584C54.1076 90.6851 54.3357 90.1355 54.7414 89.7305C55.147 89.3255 55.6969 89.0982 56.2702 89.0986C56.8434 89.099 57.393 89.3272 57.798 89.7328L69.283 101.222L97.7213 72.7749C97.9411 72.5463 98.21 72.3707 98.5077 72.2613C98.8054 72.152 99.1241 72.1118 99.4396 72.1437C99.754 72.1719 100.058 72.2685 100.331 72.4269C100.604 72.5853 100.839 72.8016 101.02 73.0605ZM144.785 21.6431V126.533C144.78 128.39 144.378 130.225 143.607 131.915C142.836 133.605 141.712 135.111 140.312 136.331V137.543C140.303 140.839 138.99 143.998 136.659 146.329C134.328 148.66 131.17 149.973 127.873 149.982H16.9304C13.6341 149.973 10.4753 148.66 8.14441 146.329C5.81357 143.998 4.50034 140.839 4.49183 137.543V136.331C3.09159 135.111 1.96816 133.605 1.19672 131.915C0.425275 130.225 0.0236051 128.39 0.0185547 126.533V21.6431C0.0234296 18.1661 1.40683 14.8329 3.86546 12.3742C6.32409 9.91562 9.65732 8.53221 13.1343 8.52734H26.3146V8.32463C26.3146 6.11681 27.1917 3.9994 28.7528 2.43823C30.314 0.87706 32.4314 0 34.6393 0C36.8471 0 38.9645 0.87706 40.5257 2.43823C42.0868 3.9994 42.9639 6.11681 42.9639 8.32463V8.52734H101.794V8.32463C101.845 6.15011 102.745 4.08185 104.301 2.56199C105.857 1.04214 107.946 0.191267 110.121 0.191267C112.296 0.191267 114.385 1.04214 115.941 2.56199C117.497 4.08185 118.396 6.15011 118.448 8.32463V8.52734H131.651C135.128 8.53221 138.461 9.91562 140.92 12.3742C143.378 14.8329 144.762 18.1661 144.767 21.6431H144.785ZM107.585 19.8326C107.57 20.1772 107.625 20.5212 107.747 20.8439C107.869 21.1666 108.055 21.4613 108.293 21.7103C108.532 21.9593 108.818 22.1574 109.136 22.2928C109.453 22.4282 109.794 22.4979 110.139 22.4979C110.484 22.4979 110.825 22.4282 111.143 22.2928C111.46 22.1574 111.746 21.9593 111.985 21.7103C112.224 21.4613 112.409 21.1666 112.531 20.8439C112.653 20.5212 112.708 20.1772 112.694 19.8326V8.31542C112.666 7.65669 112.384 7.03423 111.908 6.57802C111.432 6.12181 110.798 5.86711 110.139 5.86711C109.48 5.86711 108.846 6.12181 108.37 6.57802C107.894 7.03423 107.613 7.65669 107.585 8.31542V19.8326ZM32.1101 19.8326C32.0954 20.1772 32.1507 20.5212 32.2725 20.8439C32.3942 21.1666 32.58 21.4613 32.8187 21.7103C33.0573 21.9593 33.3439 22.1574 33.6611 22.2928C33.9784 22.4282 34.3197 22.4979 34.6646 22.4979C35.0095 22.4979 35.3508 22.4282 35.6681 22.2928C35.9853 22.1574 36.2718 21.9593 36.5105 21.7103C36.7491 21.4613 36.935 21.1666 37.0567 20.8439C37.1785 20.5212 37.2337 20.1772 37.2191 19.8326V8.31542C37.1911 7.65669 36.9098 7.03423 36.4338 6.57802C35.9578 6.12181 35.3239 5.86711 34.6646 5.86711C34.0053 5.86711 33.3714 6.12181 32.8954 6.57802C32.4194 7.03423 32.1381 7.65669 32.1101 8.31542V19.8326ZM5.79098 21.6431V46.4788H138.994V21.6431C138.987 19.6978 138.211 17.8342 136.835 16.4586C135.46 15.083 133.596 14.307 131.651 14.2998H118.452V19.828C118.478 20.938 118.282 22.042 117.876 23.0751C117.469 24.1082 116.86 25.0496 116.084 25.8439C115.308 26.6382 114.381 27.2693 113.358 27.7002C112.335 28.1311 111.236 28.3531 110.125 28.3531C109.015 28.3531 107.916 28.1311 106.893 27.7002C105.869 27.2693 104.943 26.6382 104.167 25.8439C103.391 25.0496 102.782 24.1082 102.375 23.0751C101.968 22.042 101.772 20.938 101.798 19.828V14.2998H42.9731V19.828C42.9731 22.0358 42.0961 24.1532 40.5349 25.7144C38.9737 27.2756 36.8563 28.1526 34.6485 28.1526C32.4406 28.1526 30.3232 27.2756 28.7621 25.7144C27.2009 24.1532 26.3238 22.0358 26.3238 19.828V14.2998H13.1159C11.1706 14.307 9.30699 15.083 7.93141 16.4586C6.55584 17.8342 5.77983 19.6978 5.77254 21.6431H5.79098ZM138.994 126.533V52.2512H5.77254V126.533C5.77253 128.483 6.54533 130.353 7.92169 131.735C9.29805 133.116 11.1658 133.896 13.1159 133.904H131.651C133.601 133.896 135.469 133.116 136.845 131.735C138.222 130.353 138.994 128.483 138.994 126.533ZM134.143 139.404C133.323 139.568 132.488 139.653 131.651 139.658H13.1159C12.2789 139.653 11.4443 139.569 10.6236 139.404C11.0107 140.783 11.8349 141.998 12.9722 142.868C14.1096 143.738 15.4986 144.215 16.9304 144.228H127.836C129.268 144.215 130.657 143.738 131.795 142.868C132.932 141.998 133.756 140.783 134.143 139.404Z" fill="white"/>
</g>
<defs>
<clipPath id="clip0_1268_6871">
<rect width="144.771" height="150" fill="white"/>
</clipPath>
</defs>
</svg>
