<svg width="47" height="48" viewBox="0 0 47 48" fill="none" xmlns="http://www.w3.org/2000/svg">
<g clip-path="url(#clip0_50_102)">
<path d="M30.4354 22.612V17.817C30.434 17.3262 30.5297 16.8399 30.7169 16.3861C30.9042 15.9324 31.1792 15.5201 31.5263 15.173C31.8734 14.8259 32.2857 14.5508 32.7394 14.3636C33.1932 14.1764 33.6795 14.0807 34.1703 14.082H45.0726V9.2366C45.0648 8.74374 44.8655 8.27325 44.517 7.9247C44.1684 7.57615 43.6979 7.37689 43.205 7.36909H16.4038C16.1652 7.36909 15.9289 7.3221 15.7084 7.23078C15.488 7.13947 15.2877 7.00562 15.119 6.83689C14.9503 6.66817 14.8164 6.46787 14.7251 6.24741C14.6338 6.02696 14.5868 5.79067 14.5868 5.55205C14.5868 5.31344 14.6338 5.07716 14.7251 4.85671C14.8164 4.63625 14.9503 4.43595 15.119 4.26722C15.2877 4.0985 15.488 3.96465 15.7084 3.87333C15.9289 3.78202 16.1652 3.73503 16.4038 3.73503H43.205C43.4503 3.73503 43.6931 3.68672 43.9197 3.59287C44.1463 3.49902 44.3522 3.36146 44.5256 3.18805C44.699 3.01463 44.8365 2.80875 44.9304 2.58218C45.0242 2.3556 45.0726 2.11276 45.0726 1.86751C45.0726 1.62227 45.0242 1.37943 44.9304 1.15285C44.8365 0.926276 44.699 0.720397 44.5256 0.546983C44.3522 0.373569 44.1463 0.236007 43.9197 0.142156C43.6931 0.048305 43.4503 -2.92354e-08 43.205 0H16.4038C14.9313 0 13.5191 0.58495 12.4779 1.62616C11.4367 2.66737 10.8517 4.07956 10.8517 5.55205V20.0379C14.9401 20.4921 18.5742 22.0063 18.5742 24.5805V32.101C20.5426 30.8391 23.8234 30.183 26.9527 30.183C30.7887 30.183 34.877 31.1924 36.4921 33.0599H40.2776C41.5493 33.0599 42.7689 32.5548 43.6681 31.6555C44.5673 30.7563 45.0726 29.5367 45.0726 28.265V26.2965H34.1956C33.7054 26.3066 33.2181 26.2188 32.7623 26.0381C32.3065 25.8575 31.8913 25.5876 31.5411 25.2445C31.1909 24.9014 30.9127 24.4918 30.7228 24.0397C30.533 23.5877 30.4353 23.1023 30.4354 22.612Z" fill="#040608"/>
<path d="M45.1735 16.3785H34.1956C33.794 16.3785 33.4088 16.5381 33.1249 16.8221C32.8409 17.106 32.6814 17.4912 32.6814 17.8927V22.6877C32.6814 23.0893 32.8409 23.4744 33.1249 23.7584C33.4088 24.0424 33.794 24.2019 34.1956 24.2019H45.1482C45.5498 24.2019 45.935 24.0424 46.2189 23.7584C46.5029 23.4744 46.6624 23.0893 46.6624 22.6877V17.8927C46.6672 17.6947 46.6321 17.4978 46.5593 17.3136C46.4865 17.1294 46.3774 16.9617 46.2385 16.8205C46.0996 16.6793 45.9338 16.5674 45.7508 16.4915C45.5679 16.4155 45.3716 16.3771 45.1735 16.3785ZM43.0537 21.8801C42.6253 21.8801 42.2144 21.71 41.9115 21.4071C41.6086 21.1042 41.4385 20.6934 41.4385 20.265C41.4385 19.8366 41.6086 19.4258 41.9115 19.1229C42.2144 18.82 42.6253 18.6498 43.0537 18.6498C43.4784 18.6613 43.8826 18.8352 44.183 19.1356C44.4835 19.4361 44.6573 19.8402 44.6688 20.265C44.6681 20.4757 44.6257 20.6842 44.544 20.8785C44.4623 21.0727 44.3429 21.2489 44.1927 21.3967C44.0425 21.5445 43.8646 21.6612 43.669 21.7398C43.4735 21.8184 43.2644 21.8576 43.0537 21.8549V21.8801Z" fill="#040608"/>
<path d="M18.5742 37.653V40.0252C18.5742 41.1861 21.8549 42.8013 26.9527 42.8013C32.0505 42.8013 35.3312 41.1356 35.3312 40.0252V37.653C33.3628 38.9148 30.082 39.571 26.9527 39.571C23.8234 39.571 20.5678 38.9148 18.5742 37.653Z" fill="#040608"/>
<path d="M18.5742 42.8013V45.224C18.5742 46.3849 21.8549 48 26.9527 48C32.0505 48 35.3312 46.3344 35.3312 45.224V42.8517C33.3628 44.0631 30.082 44.7192 26.9527 44.7192C23.8234 44.7192 20.5678 44.0631 18.5742 42.8013Z" fill="#040608"/>
<path d="M26.9527 32.101C21.8549 32.101 18.5742 33.7666 18.5742 34.877C18.5742 35.9874 21.8549 37.653 26.9527 37.653C32.0505 37.653 35.3312 35.9874 35.3312 34.877C35.3312 33.7666 32.0505 32.101 26.9527 32.101Z" fill="#040608"/>
<path d="M0 42.8013V45.224C0 46.3849 3.28074 48 8.37854 48C13.4763 48 16.7571 46.3344 16.7571 45.224V42.8517C14.7381 44.0631 11.5079 44.7192 8.37854 44.7192C5.2492 44.7192 1.96845 44.0631 0 42.8013Z" fill="#040608"/>
<path d="M0 37.653V40.0252C0 41.1861 3.28074 42.8013 8.37854 42.8013C13.4763 42.8013 16.7571 41.1356 16.7571 40.0252V37.653C14.7886 38.9148 11.5079 39.571 8.37854 39.571C5.2492 39.571 1.96845 38.9148 0 37.653Z" fill="#040608"/>
<path d="M0 27.3565V29.7287C0 30.8896 3.28074 32.5047 8.37854 32.5047C13.4763 32.5047 16.7571 30.8391 16.7571 29.7287V27.3565C14.7886 28.6183 11.5079 29.2744 8.37854 29.2744C5.2492 29.2744 1.96845 28.6183 0 27.3565Z" fill="#040608"/>
<path d="M8.37854 21.8044C3.28074 21.8044 0 23.47 0 24.5804C0 25.6909 3.28074 27.3565 8.37854 27.3565C13.4763 27.3565 16.7571 25.6909 16.7571 24.5804C16.7571 23.47 13.5016 21.8044 8.37854 21.8044Z" fill="#040608"/>
<path d="M0 32.53V34.9022C0 36.0631 3.28074 37.6782 8.37854 37.6782C13.4763 37.6782 16.7571 36.0126 16.7571 34.9022V32.53C14.7886 33.7918 11.5079 34.4479 8.37854 34.4479C5.2492 34.4479 1.96845 33.7666 0 32.53Z" fill="#040608"/>
</g>
<defs>
<clipPath id="clip0_50_102">
<rect width="46.6372" height="48" fill="white"/>
</clipPath>
</defs>
</svg>
