<svg width="16" height="16" viewBox="0 0 16 16" fill="none" xmlns="http://www.w3.org/2000/svg">
<path d="M16 7L3.83 7L9.42 1.41L8 1.39876e-06L-1.39876e-06 8L8 16L9.41 14.59L3.83 9L16 9L16 7Z" fill="#fff"/>
</svg>
