<svg width="12" height="24" viewBox="0 0 12 24" fill="none" xmlns="http://www.w3.org/2000/svg">
<g clip-path="url(#clip0_50_137)">
<path fill-rule="evenodd" clip-rule="evenodd" d="M7.40321 7.1774V5.25804C7.38402 5.11001 7.39769 4.95955 7.44322 4.8174C7.48876 4.67525 7.56507 4.54486 7.66669 4.43554C7.76832 4.32622 7.89278 4.24068 8.03123 4.1849C8.16968 4.12913 8.3187 4.10449 8.46773 4.11284H11.1935V-4.23267e-05H7.48388C6.80833 -0.0581217 6.12822 0.0313585 5.49069 0.262212C4.85316 0.493065 4.27344 0.859782 3.7917 1.33692C3.30995 1.81406 2.93771 2.39024 2.70074 3.02553C2.46378 3.66082 2.36775 4.33999 2.41934 5.01606V7.1774H0.0322266V12.0161H2.45158V24.0323H7.29029V12.0161H10.8387L11 10.129L11.2903 7.20969L7.40321 7.1774Z" fill="#303030"/>
</g>
<defs>
<clipPath id="clip0_50_137">
<rect width="11.2258" height="24" fill="white"/>
</clipPath>
</defs>
</svg>
