<svg width="192" height="10" viewBox="0 0 192 10" fill="none" xmlns="http://www.w3.org/2000/svg">
<path d="M5 10C7.76142 10 10 7.76142 10 5C10 2.23858 7.76142 0 5 0C2.23858 0 0 2.23858 0 5C0 7.76142 2.23858 10 5 10Z" fill="#252525"/>
<path d="M5 4.5H192" stroke="black"/>
</svg>
