<svg width="17" height="17" viewBox="0 0 17 17" fill="none" xmlns="http://www.w3.org/2000/svg">
<path fill-rule="evenodd" clip-rule="evenodd" d="M15.5037 8.97618H15.3099C15.4865 8.97906 15.6605 9.02022 15.8201 9.09688C15.9796 9.17354 16.1209 9.28392 16.2345 9.42053C16.3481 9.55714 16.4313 9.71678 16.4785 9.88867C16.5257 10.0606 16.5357 10.2407 16.5079 10.4169C16.4659 10.7237 16.3133 11.004 16.0792 11.2042C15.8451 11.4045 15.5461 11.5104 15.2394 11.5018H15.0985C15.2616 11.5041 15.4226 11.5389 15.5724 11.6041C15.7223 11.6692 15.8579 11.7635 15.9716 11.8816C16.0853 11.9997 16.1748 12.1393 16.2351 12.2923C16.2954 12.4453 16.3252 12.6088 16.3229 12.7735C16.3206 12.9381 16.2862 13.1007 16.2216 13.252C16.1571 13.4032 16.0636 13.5401 15.9467 13.6549C15.8297 13.7697 15.6915 13.8601 15.5399 13.9209C15.3883 13.9818 15.2263 14.0119 15.0632 14.0096H14.9047C15.2317 14.0096 15.5454 14.1407 15.7767 14.3742C16.008 14.6077 16.1379 14.9244 16.1379 15.2546C16.1379 15.5848 16.008 15.9014 15.7767 16.1349C15.5454 16.3684 15.2317 16.4996 14.9047 16.4996H10.3769C7.99554 16.4996 6.90668 15.9438 6.1141 15.5393C5.94503 15.453 5.78944 15.3736 5.63766 15.3079C5.52479 15.257 5.4285 15.1748 5.35991 15.071C5.29133 14.9671 5.25325 14.8458 5.25006 14.721V7.60668C5.25142 7.5059 5.27601 7.40682 5.32188 7.3173C5.36775 7.22777 5.43364 7.15026 5.51433 7.0909C6.32475 6.50397 8.75603 4.51197 9.40789 1.54176C9.76025 -0.0411577 12.1915 0.243412 12.0153 1.96862C11.9166 2.96504 11.7626 3.58745 11.5998 4.24553C11.472 4.7621 11.3387 5.30064 11.2225 6.05933C11.2119 6.11161 11.2132 6.16562 11.2261 6.21737C11.239 6.26912 11.2632 6.31727 11.2971 6.35827C11.3309 6.39926 11.3734 6.43204 11.4215 6.45419C11.4696 6.47633 11.522 6.48726 11.5749 6.48618H15.5037C15.8308 6.48618 16.1444 6.61735 16.3757 6.85083C16.607 7.08432 16.7369 7.40099 16.7369 7.73118C16.7369 8.06138 16.607 8.37806 16.3757 8.61154C16.1444 8.84502 15.8308 8.97618 15.5037 8.97618ZM0.634242 7.25809H3.66452C3.83122 7.2587 3.99143 7.32341 4.11253 7.43906C4.23363 7.5547 4.30653 7.71259 4.31639 7.88058V14.4969C4.31662 14.5811 4.30037 14.6644 4.26858 14.7422C4.23679 14.82 4.19008 14.8907 4.13114 14.9502C4.0722 15.0097 4.00219 15.0568 3.92513 15.0889C3.84808 15.121 3.7655 15.1374 3.68215 15.1372H0.634242C0.550887 15.1374 0.468309 15.121 0.391254 15.0889C0.314199 15.0568 0.244188 15.0097 0.185246 14.9502C0.126305 14.8907 0.0796022 14.82 0.0478108 14.7422C0.0160194 14.6644 -0.000230052 14.5811 2.46038e-06 14.4969V7.89837C-0.000230052 7.81422 0.0160194 7.73086 0.0478108 7.65307C0.0796022 7.57528 0.126305 7.5046 0.185246 7.4451C0.244188 7.38559 0.314199 7.33844 0.391254 7.30635C0.468309 7.27425 0.550887 7.25785 0.634242 7.25809ZM1.77745 13.6004C1.88754 13.6747 2.01698 13.7143 2.14939 13.7143V13.7072C2.32573 13.7072 2.49496 13.637 2.62031 13.5118C2.74566 13.3866 2.81701 13.2165 2.81887 13.0385C2.81887 12.9048 2.77961 12.7741 2.70604 12.663C2.63248 12.5519 2.52791 12.4652 2.40558 12.4141C2.28325 12.3629 2.14865 12.3495 2.01878 12.3756C1.88891 12.4017 1.76962 12.4661 1.67599 12.5606C1.58236 12.6551 1.5186 12.7755 1.49277 12.9066C1.46694 13.0377 1.4802 13.1736 1.53087 13.2971C1.58154 13.4206 1.66735 13.5262 1.77745 13.6004Z" fill="#252525"/>
</svg>
